searched_max_value,140888467543463
2
3
5
7
11
13
17
19
23
31
43
47
67
71
79
83
103
107
139
191
263
283
431
479
499
503
619
643
647
839
1151
1579
1583
1699
2591
2879
2999
3019
3023
3719
3863
5039
6907
6911
9479
15551
18119
18143
41443
41467
93307
108863
137
193
197
313
317
433
673
677
797
1033
1153
1873
1877
2593
2833
2837
4273
4993
6197
8353
15797
16993
25873
28753
30197
38593
38833
69073
94993
101957
155473
179953
179957
181157
181397
414433
414677
933073
2486593
6531797
8233
8237
11593
11597
11833
18793
18797
19037
25997
40637
47837
69193
69197
112397
155593
256393
371837
501197
947833
1552393
1725197
1811837
2315597
2329997
5699593
6117437
10797197
493993
494237
695593
1127837
1142233
1142237
2870237
9335597
93143597
103511833
108710237
367046233
67670233
68534237
560135837
6210709993
6522614237
391356854237
199
439
443
683
1039
1163
1399
1879
2843
4283
4759
4999
5003
6199
6203
8363
11483
15803
28759
29959
30203
37159
38603
38839
50359
50363
94999
95003
101963
172759
181399
231799
414679
414683
1087159
1088603
2488043
8243
11839
18803
25999
26003
40639
47843
62003
69203
112403
112643
155599
170003
170239
170243
299603
371843
501203
1552403
5699599
10797439
55984399
695599
695603
695839
695843
1127603
1142243
1559839
2438239
6743843
22310243
56870003
93143599
108710243
139799843
647831839
647831843
29654243
67670243
68533999
68534239
560135843
23481411254243
11959
112759
170603
257003
285559
501803
688999
1812199
2316203
5699963
65229559
1559963
1560203
6744203
10214359
10214363
93144203
41750603
67656203
93590359
93590363
8387990599
8387990603
331
691
811
1051
1171
2851
4051
5011
6211
6451
11491
17011
28771
30211
37171
38611
38851
94771
414451
414691
1088611
2486611
19051
62011
371851
947851
1811851
2315611
6117451
10869451
24866011
494251
1559851
6743851
11971
26371
41011
112771
371971
5699971
24881011
710371
1560211
2870611
9335971
93144211
341975971
3359063971
146294371
38869910371
4112054371
463
467
823
827
1063
1187
1423
1427
1907
4783
4787
5023
8387
11503
15823
17027
25903
29983
30223
38867
50383
50387
95027
101987
172787
181183
231823
231827
414467
414703
414707
568783
568787
1088623
2486623
2488067
8263
11863
11867
40423
40427
112663
155627
170263
170267
256423
299623
501223
1725223
1811867
4144423
5699627
10797463
10883863
391907863
494023
494267
695627
695867
710023
710027
1142263
108710263
139799867
41735623
41735627
67670263
22022774023
22022774027
4112054263
372642599627
391356854263
23481411254267
11987
26387
26627
41023
62383
69827
83983
83987
112787
170627
299983
372223
501827
1725583
1812227
2229587
2330387
3021587
5699983
5699987
6117823
10883987
13907983
24880787
710383
1128223
1128227
1559983
1560227
2438383
2870627
10200227
10214383
10214623
17976227
30072227
93144223
41750383
67656227
68534623
93590383
3412200223
727
1087
1091
1447
1451
1931
2647
2887
4091
4327
5051
6247
6491
11527
17047
25931
28807
30011
38651
38891
50411
69127
94811
172807
180007
181211
223207
223211
302411
414487
414731
568807
2486651
5598487
8287
8291
11887
19087
62047
69247
112687
112691
170047
1019647
1552451
1725247
2315647
2330047
2330051
5699647
6117491
9328447
10797247
10797487
55984447
149195647
494051
494287
710051
1127891
1142287
1559891
4151647
4151887
6743887
9335647
15383647
22310287
93143647
93143651
103511887
138935887
138935891
341975651
367046287
367046291
29639647
29639651
68534287
172214291
22022774047
4112054291
12007
12011
26407
26647
41047
41051
69847
84011
112807
170647
285611
300007
300247
948247
2316247
3021611
3021847
5700007
6117851
10884011
13908007
149282647
494647
494651
1128247
1128251
1560007
1560011
3720247
3720251
9336007
10214411
17976247
647846411
41736251
41750647
68534651
404630647
3412200251
6522614647
38869910407
38869910411
1779254647
4112054407
859
863
1103
1223
1459
2659
2663
2903
4099
4339
5059
6263
8419
8423
15859
25939
25943
30259
37223
38903
50423
69143
94819
94823
95063
102019
102023
155539
180023
181219
181459
223219
231859
414503
568823
2488099
11903
18859
40459
40699
47903
69259
69263
112459
155663
170063
170299
1019663
1725259
1811899
1811903
2315659
10869503
695659
695663
695899
1127663
4151663
56870063
103511899
138935899
341975659
29654299
68534299
26423
62423
69859
300023
372023
372263
501863
689063
948263
1812263
2330423
3021619
5700259
5700263
6117863
10884023
24880819
65229623
65316263
149282659
149282663
1560023
1560263
2870663
6744263
6758659
10200263
10214423
10214663
17976263
93144263
41750659
41750663
404630663
38869910659
1123
1483
1487
2683
2687
2927
4127
4363
5087
6287
8443
8447
15887
28843
30047
37243
38923
69163
94847
95083
95087
102043
180043
181243
223243
223247
302443
414763
414767
1088687
6531887
11923
11927
26083
40483
40487
170327
256483
299683
371927
501287
947927
1019687
1725287
1811923
2315683
4144487
10797287
10883923
494083
494327
695687
695927
1127683
2870323
4151683
6743923
6743927
93143683
139799927
67670327
172214323
172214327
560135923
6522614327
33608150327
372642599687
12043
26683
26687
84047
112843
285643
300043
948287
2316287
3021643
3021883
5700047
5700283
6117883
10365643
13908043
24881083
65229643
149282687
494687
710443
1128287
1560047
2870683
4152283
10200287
10214443
10214683
647846447
3359064043
3359064047
41736043
146294443
404630683
404630687
5588616043
8387990683
1259
1499
1979
2699
2939
4139
5099
6299
11579
17099
28859
30059
38699
50459
102059
155579
172859
181499
223259
302459
414539
414779
1087259
2486699
5598539
11699
11939
18899
19139
26099
40499
40739
47939
62099
155699
170099
256499
299699
371939
501299
1019699
1811939
2315699
2330099
9328499
55984499
391907939
695939
2438339
4151699
9335699
15383699
108710339
41735699
68534339
33608150339
372642599699
26459
26699
62459
69899
84059
112859
257099
300299
372059
372299
2229659
2316299
2330459
6117899
10884059
24880859
24881099
149282699
494699
710459
1128299
1560059
2438459
4152299
6744299
9336059
67656299
93590459
33608150699
1523
1999
2003
2719
2963
4159
5119
6323
6563
15919
15923
17123
28879
30319
30323
38723
38959
102079
172883
181283
181523
223283
231919
231923
302483
414559
414803
933199
1088723
2488159
11719
18919
19163
26119
40519
40759
40763
47963
62119
155719
155723
170123
170363
299723
947959
947963
1019723
1811959
2330123
5699723
9328519
10797323
10797559
10869559
10869563
391907963
494359
695719
710119
1142359
1142363
4151963
22310363
30071959
56870119
93143723
138935963
139799963
367046363
647831959
29639723
29654363
41735719
68534119
68534363
172214359
560135963
6210710123
26479
26723
62483
257123
300319
300323
1725683
2229683
2316323
3021919
3021923
6117919
10365679
24880883
24881119
149282723
494719
494723
710483
6744319
6758723
9336079
9336083
10200319
22310719
22310723
30072319
30072323
93144323
341976083
41736083
41750479
41750483
41750719
68534723
93590479
146294479
5588616079
5588616083
38869910479
2767
3011
4211
4447
4451
4931
5167
5171
6367
6607
8527
15971
17167
28927
30367
38767
50527
223331
231967
414607
414611
2486767
5598611
6531971
19207
19211
26171
62171
69371
112571
170167
256567
299771
501367
948007
1019771
1552567
1552571
2315771
6117607
9328567
24866167
391908007
494167
494407
695771
1127767
2870407
2870411
6744007
138936011
139800007
647832011
29654407
41735767
6210710167
6522614411
22022774171
84127
84131
112927
170767
257171
285731
300367
372131
372367
372371
501967
501971
689167
2316371
3021727
5700131
5700367
6117967
13908131
65229727
65316367
65316371
710527
710531
1128371
1560127
1560131
1560371
4152371
6744371
6758767
6758771
10214527
10214767
22310767
93144371
3359064127
41736127
41736371
68534771
404630767
404630771
38869910771
33608150767
3079
3083
4519
4523
6679
8599
17239
39079
50599
95239
102199
102203
172999
181639
223403
414923
568999
569003
933319
1088839
2486843
5598679
40879
40883
48079
69439
170483
256639
256643
299843
1019839
1552643
2315839
2315843
5699839
9328643
10797679
24866239
696079
696083
1142483
4152079
6744079
15383839
56870243
139800083
367046483
29654483
67670479
68534483
560136079
12203
26839
41243
62603
70039
84199
170843
257239
300439
372443
502039
502043
948439
948443
1812439
1812443
3022043
5700439
13908203
65316443
149282843
494843
710599
710603
1560443
2438603
2870839
6758839
9336199
10214843
22310843
93144439
647846599
8387990839
4112054603
4547
6703
8623
8627
11743
16063
16067
29023
29027
30467
37423
39103
39107
50627
95267
155747
173023
181667
223423
1087423
2486863
2486867
12107
26263
26267
40903
69463
69467
155863
170503
372107
501463
1725463
1812103
4144663
4144667
10797707
24866263
149195863
696107
1128107
1142503
1142507
2438503
2438507
4152107
9335863
56870263
103512103
108710507
341975863
29654503
67670503
560136107
6522614503
4060214267
33608150503
391356854507
12227
26863
41263
62627
70067
84223
113023
113027
257263
285823
285827
300463
502063
689267
1797823
1797827
2229823
2316463
3022067
65316463
65316467
149282863
710623
710627
2438627
2870863
6758867
30072463
341976223
647846627
3359064223
68534867
6522614863
4423
4663
5147
5387
6823
6827
8747
16183
16187
17383
17387
29147
30347
37547
39227
95143
95383
180347
181787
223543
223547
232187
302747
933463
1087543
1088987
2486987
2488427
5598823
19183
19423
19427
40787
170383
2315983
4144783
10797587
149195983
494383
494387
1127983
15383983
93143983
93143987
29639983
67670627
22022774383
4060214383
23481411254627
12343
12347
26987
41387
62743
70183
84347
113143
113147
300343
300347
300583
689383
1725947
1797947
2229943
3021943
5700347
6118183
6118187
494987
1128583
2870983
3720583
4152587
6744583
9336343
17976587
22310983
30072587
93144587
41736347
41736587
41750747
404630987
3412200587
8387990987
38869910983
38869910987
4112040343
4691
5407
29167
37567
37571
39251
50767
69491
102367
155887
155891
180371
232207
302767
415087
8647
12251
19447
48247
113051
156007
156011
1020007
1020011
1552807
2316011
9328811
10797847
10797851
1142651
15384011
138936247
139800247
139800251
367046651
29640011
560136251
27011
41411
70207
113167
113171
171007
257407
372607
372611
689411
1725967
1797967
1812611
2229967
2229971
2330771
3022207
3022211
24881411
65316607
149283007
2438767
6744611
10200607
10200611
22311007
3359064367
41751007
41751011
146294767
8387991011
1779255007
4112040367
6659
6899
8819
26339
37619
69539
95219
173219
180419
181619
232259
414899
8699
19259
48299
156059
501659
1020059
2316059
9328859
149196059
15384059
56870459
29654699
560136299
27059
62819
257459
286019
502259
689459
948659
3022259
5700419
5700659
10366019
1560659
2438819
6744659
9336419
17976659
3359064419
1338615059
4112040419
5479
5483
8839
17483
29243
37643
39323
50839
95479
95483
302843
415159
569243
933563
6532283
8719
12323
113123
1020079
1552879
2316079
4144879
9328883
10884323
24866483
55984883
149196083
696323
103512319
138936319
67670719
22022774483
372642600079
391356854719
23481411254723
41479
84443
171079
286043
300683
1812683
2316679
5700679
10884439
10884443
13908439
13908443
65316679
710839
1560683
4152679
10200679
22311083
30072683
93144679
647846839
3359064439
67656679
3412200683
6522615079
4060215079
6803
7039
7043
8963
17599
29363
30559
30803
39199
39439
39443
95603
102559
102563
173359
180563
181759
181763
223759
302959
415039
2487203
5599043
6532399
19403
4145003
9328999
9329003
10870039
391908443
15384203
108710843
367046843
29640199
29640203
67670839
67670843
22022774603
372642600203
26959
41603
84559
113359
113363
171203
286163
300799
372803
689599
689603
948799
1726159
2230159
2330959
3022163
3022403
6118403
10366163
10884563
13908563
65230159
65230163
495199
710959
1560799
2871199
4152803
10214959
22311199
3359064563
146294963
5588616563
4112054959
4112054963
16427
17623
17627
29383
29387
37783
102587
182027
302983
933703
933707
1087787
1089223
1089227
2487227
2488667
6532423
8863
8867
48463
156227
1020223
1553023
4145023
4145027
10870063
1142863
56870623
108710867
138936463
29640223
29640227
172214863
4112054867
12583
41627
62983
62987
70423
113383
257627
300823
1798183
1798187
1812823
1812827
2316823
5700823
6118423
710987
1128823
2871227
4152823
6744827
9336583
10200823
30072827
93144823
93144827
41736823
6522615227
8387991223
16619
31019
39419
39659
95819
180779
569579
12659
70019
156419
257219
1020419
55985219
149196419
696659
93144419
108711059
29640419
560136659
4060214819
27179
63179
70619
300779
373019
949019
1726379
5701019
24881579
1129019
1561019
2439179
17977019
146295179
5588616779
12611
16927
16931
18127
18131
31091
31327
38287
39727
39971
51487
95891
103087
103091
173891
181087
224291
303491
415567
569887
5599567
5599571
12967
19927
27127
41771
63127
63131
70327
156727
171131
372971
948971
1553527
1726327
2331127
4145527
5700731
6118571
9329527
9329531
10870567
10870571
24867127
24867131
24881767
24881771
149196727
149196731
495371
711131
1128727
1128731
1143371
1560967
2871367
4152971
6744967
9336727
15384731
56871127
103512967
103512971
108711371
341976727
341976731
367047367
647832971
67671367
68535127
560136971
6522615371
27487
42131
63487
85087
85091
113891
258127
258131
286687
301331
373091
373327
690127
1726691
1813327
2230691
2317327
3022687
6118927
10366687
10366691
13909087
24881891
24882131
65230687
65317331
2439487
2439491
2871731
3721327
6745331
17977331
22311727
647847491
41737327
38869911491
1779255727
4112041091
17359
40163
70639
96323
415999
416239
416243
934639
2489603
5599999
20359
20599
41959
63559
113963
114199
114203
157163
171559
171799
171803
301159
1021159
1726759
4145959
6118999
9329963
10798763
10798999
10870999
24882199
149197163
391909403
495559
495563
495799
697399
711563
1129159
1129399
1143799
1143803
2439803
4153159
4153399
15385159
22311799
30073403
56871559
139801399
68535563
172215803
372642601159
27919
28163
71359
71363
85523
114319
258563
301759
503359
949759
1799123
2317759
3023123
5701763
496163
711923
1129763
1561519
1561759
2439919
4153759
6745763
6760163
10215923
10216159
17977763
22312163
30073759
30073763
93145763
3359065519
93591923
3412201763
4060216159
18679
31643
31883
40283
96443
103643
174443
182839
304039
416359
934763
2489719
6533479
20479
20483
20719
42083
42323
49523
70879
114083
157279
171679
171923
502883
949523
1021283
1554083
1726883
1813523
2317283
6119119
6119123
10799119
55986079
391909519
495679
495923
697519
697523
711679
1129283
1129519
1129523
2871919
4153283
4153519
6745523
22311923
93145279
103513519
108711919
68535683
68535919
560137519
6210711679
23481411255923
28279
28283
42683
71479
71483
85639
85643
172279
172283
287239
301643
503483
2317879
3023479
5701639
5701643
6119479
6119483
10367243
24882443
149284279
496283
1561639
1561883
2440043
2872283
6760283
9337639
17977879
3359065639
3359065643
41737639
41737879
41752279
68536283
3412201879
6522616279
4060216283
28447
32531
32771
71647
97327
97571
104527
158047
175327
183971
417007
417251
571331
935651
28571
42967
43207
64567
114967
115211
258967
258971
302167
302171
503771
1022167
1727771
2332567
6120007
10800007
10872007
24868567
24883207
55986971
391910411
698171
712571
1130407
1562411
2440807
2872811
15386167
93146167
93146171
103514407
138938411
29656807
41738167
67672807
68536807
5588618411
6522616811
22022776571
4112056807
33608152811
64927
72367
86531
115327
115331
374531
374771
2332931
6120371
10368131
10886531
13910531
24883567
149285167
497171
712927
1562527
1562531
3722767
6746771
10217167
10217171
17978767
17978771
22313171
3359066531
41738531
41738771
41753171
404633171
1338617171
3412202771
5588618531
38869913171
1779257171
4060217171
33608153171
97859
184259
234659
305219
1091459
2490899
43499
115259
115499
173099
950699
1555259
10800299
55987259
1130699
1145099
2873099
4154699
30074699
139802699
68536859
560138699
4060216859
374819
375059
951059
2319059
5702819
10886819
24883619
149285459
3723059
404633459
32939
33179
41579
305339
417419
259379
302579
950819
1728179
1814819
4147379
391910819
1130579
1130819
4154819
6746819
22313219
108713219
647834819
172217219
86939
288539
374939
691979
1728539
1815179
2319179
497579
10217579
17979179
647849339
3359066939
41739179
41753339
4112042939
33199
33203
41843
53359
104959
175759
234799
234803
305363
571759
2491043
6534799
43399
43403
65003
115399
374839
950839
1814843
2318599
4147399
10800203
24868999
496999
497239
9338603
103514839
108713239
138938843
341978599
67673239
68537243
4060216999
33608153239
23481411257243
86959
115763
173599
260003
288559
375203
504799
1800563
1815199
3024803
5703199
10368563
10886963
24883759
497603
2441363
6761603
10203203
3359066959
41753603
93593359
93593363
3412203199
5588618963
6522617599
6522617603
8387993599
38869913603
33608153599
33608153603
42299
54059
98459
159179
176459
184859
185099
936779
5602139
51539
65699
116099
173699
303299
1023299
2319299
10873139
24884339
699299
699539
1563539
2873939
4155539
103515539
68537939
4060217699
44699
174299
375899
1801259
1815899
3025499
5703899
10369259
13911659
2442059
2874299
6747899
10218059
3359067659
41754059
67659899
1338618299
38869914059
4060218299
4112043659
42443
72923
159319
176599
184999
185243
418279
572599
936919
1091003
44483
51679
51683
65839
65843
73039
73043
116239
116243
116483
173839
174079
1729043
2333839
4148239
10801279
24869839
55988243
149199443
497839
699443
1146083
9339439
15387443
139803679
341979439
647835679
29643443
67674083
68538083
172218083
5588619679
6522618083
44839
44843
73643
87803
303803
375799
376039
505639
505643
1801403
2233403
2320039
10369399
24884603
65320039
149286443
498439
714199
2442199
3724043
4156039
4156043
6748043
6762439
6762443
10218199
22314443
41754203
68538439
68538443
146298203
404634443
1338618443
6522618439
4060218439
4112058199
33608154439
42703
98627
98867
159347
183823
185027
185267
227027
235663
418303
1091023
1092463
2491903
6535663
44263
44267
44507
65867
73063
116507
159463
173867
260263
303463
375703
375707
505067
1023467
1556263
1556267
1815703
1815707
2333867
5703463
9332263
10801067
24869863
55988267
149199467
497867
498103
699463
713863
1131463
1131467
1563703
1563707
2442103
2442107
2874107
4155467
4155703
6747707
9339467
22314107
30075707
56873867
108714107
138939707
29643463
67674107
68538103
172218103
172218107
5588619703
22022777867
4060217867
33608154103
391356858103
44867
174467
260863
289423
303827
304063
304067
376063
505663
692863
1816063
2320063
2334223
3025423
3025667
10887827
13911827
65320063
65320067
149286463
498467
714223
714227
1132063
1132067
1564063
1564067
2442227
2874463
2874467
3724067
4156063
6762463
6762467
9339823
10204067
10218227
93148063
93148067
41740063
41740067
93594227
404634463
33608154467
74099
100019
106979
160499
186419
419459
938099
74219
117659
160619
952859
1557419
10802459
10888859
715019
93148619
108715259
139804859
41740619
68539259
560140859
23481411259259
117779
304979
377219
694019
1730579
2234579
2321219
6122819
13912979
24886019
1133219
2875619
10219379
17981219
93149219
341980979
41755379
41755619
68539619
146299379
38869915619
4060219619
75967
101891
179651
188291
230047
238691
309251
421331
575647
575651
939971
1094047
1095487
1095491
2494931
5605331
76091
119291
176887
177127
177131
263287
306491
508087
508091
954727
1818727
2322487
2322491
6124331
10890731
24887531
55991291
500887
500891
501131
702731
1134487
1149131
1566731
4158491
4158731
6750727
22317131
93150487
138942731
139806727
367053131
29661127
29661131
172221131
560142727
22022780887
4112061131
372642606487
90847
177487
306847
307091
379087
955091
1732447
1804447
3028691
6124691
10372447
13914851
24887647
24887651
1135087
1135091
1566847
1567087
2877487
3727091
4159091
10221247
341982847
41742851
41757251
41757487
93597247
404637491
1338621491
3412207087
3412207091
1779261487
4112046847
4112061251
104459
241259
424139
2497499
122099
165059
309059
10806659
391917299
2879699
4161299
30081299
67679699
68543459
172223699
4060223459
33608159699
122219
381419
381659
957659
3031019
5709659
1137659
3729659
9345419
10223819
22320059
67665659
4060224059
104479
111439
111443
164963
182239
182243
189439
190639
232643
424163
1096639
2496079
2496083
121883
165079
165083
179479
179483
179719
265883
309079
309083
381319
381323
510683
1821319
2325083
10878919
24875483
55993879
149205083
705079
719483
1569319
2447723
2879719
6753323
9345079
22319723
30081319
56879479
93153079
138945319
341985079
367055723
647841323
29649079
29663719
68543483
68543723
560145323
6522623719
4060223483
266479
295039
381439
381443
511279
698483
1735043
1821679
3031043
5709679
6127279
6127283
10893439
24890479
65239043
149292083
719839
1569443
2447843
4161679
6753679
6768079
10223839
10224083
17985679
17985683
341985443
3359073439
41745439
41760083
67665679
68544083
404640083
3412209679
5588625443
38869919839
4112049443
112139
191339
191579
241979
2496779
2498219
122579
122819
165779
180179
309779
1822019
2325779
2340179
5709779
10807619
24890819
705779
706019
720179
1138019
1152419
15393779
93153779
341985779
367056419
29649779
560146019
122939
310379
1735739
5710139
10894139
13918139
65326379
149292779
2448539
10224779
93154379
68544779
93600539
8388000779
1779264779
33608160779
196687
196927
317887
429971
1102691
5613967
6547327
185527
185531
185767
271927
315127
387371
516727
963367
1035131
1567931
1740731
1827367
6132967
10812727
10899367
509767
711371
725531
1157771
2453771
4167127
4167367
6759367
6759371
9351127
22325767
30087367
56885531
93159127
367061767
647847367
29669767
67685767
560151367
22022789527
372642615131
391356869767
387727
704527
963731
1827731
2345887
2345891
3037087
5715487
5715727
6133331
10899491
510127
725891
1575731
2453887
2886127
3735731
4167731
9351487
22326127
30087731
93159727
341991487
647861887
3359079491
146309887
5588631487
1779270131
4060230131
198659
249059
2503859
5615699
316859
389099
6134699
24883259
1577099
2455499
22327499
108727499
6522631499
4112071499
274259
317459
389219
1829459
2333459
511859
2455619
9353219
22327859
30089459
93161459
41767619
68551859
1779271859
199379
249779
320339
432659
389819
1743179
2333579
10815419
10901819
1160219
4169579
6761819
9353579
139817819
647849819
29672219
67688219
68551979
68552219
303539
318179
2334179
5717939
5718179
10383539
13925939
512579
1146179
6762179
3359081939
41768579
67674179
404648579
1338632579
8388008579
33608168579
199499
432539
6135539
24884099
713939
2888339
6761939
56888099
93161699
108728339
139817939
29657699
391356872339
318299
707099
1743659
2247659
2348459
5718059
24899099
149300699
1578299
2456459
68552699
199523
249923
320483
432559
432799
6549923
965963
1570519
1829959
1829963
2333719
2348119
2348123
4162519
10815319
10887559
10887563
10901959
10901963
1145723
1160359
1160363
1577959
1577963
2456359
4169719
4169723
22328359
30089959
56888123
103529963
138953959
341993719
29657723
67688359
68552119
5588633959
6210728119
6210728123
391356872363
303679
303683
318319
318323
390083
390323
519919
519923
966319
966323
1830319
3039919
6135919
13926083
24898879
24898883
1146323
1578323
2888723
3738323
6762319
9354083
10218323
17994323
93162323
41768719
67674319
1338632719
3412218319
38869928719
436739
436979
955379
2508899
1834139
2337899
6139739
9350699
516539
718139
732299
1150139
2460539
30094139
103534139
108732539
138958139
29676539
67692539
307859
394259
524099
711299
2251859
5722499
65251859
2460659
6766499
10236659
17998499
22332899
341998259
41758259
41758499
4060236899
254959
254963
5621599
970999
1042759
1748359
1834999
1835003
2353159
5722763
56007559
56007563
149218759
149218763
391930999
391931003
517399
517403
718759
718999
1150763
1165399
1583003
2461399
2893399
4174759
22333403
30095003
56893159
341998759
367069403
67693403
6210733163
22022797163
391356877403
308723
323123
323359
395119
524959
524963
1748723
1835359
1835363
5723119
5723363
24904163
65252723
65339359
149305763
733519
1151363
1583359
2461519
2893763
6781763
9359123
10237763
22333763
93167359
41759119
68557763
93613523
404653759
1338637759
3412223363
38869933759
33608173763
963299
1117379
2518259
2360219
10827659
56014619
149225819
524219
4181819
6774059
342005819
367076459
67700459
6522644459
23481411284459
402419
1827779
1842419
3051779
24910979
1158419
2468579
2900819
3750419
4182419
9366179
22340819
342006179
41780579
41780819
67686419
404660819
1338644819
455863
456107
610187
974507
1130023
2529463
5639867
6573223
1593827
1766627
1853263
2357027
2371423
2371427
4185823
10838627
10925263
24907427
24922067
149237027
391949267
535663
737263
751423
1169023
1169027
1601267
2479663
2479667
2911663
4193263
6785263
9377023
15425027
30113263
30113267
56911423
93185023
108751667
138977263
367087663
367087667
29681023
29695667
560177263
6522655663
4060255427
4112095667
372642641027
543223
543227
989623
1838983
1838987
1853627
2270987
5741383
5741387
10406983
13949387
24922427
65270983
65357627
149324023
536023
751787
1169627
1601623
1601627
2479787
2912023
18017627
30113627
647887787
3359105383
41777387
41777627
41791787
1338656023
5588657387
38869952027
1779296027
4060256023
4060256027
4112081387
33608192027
974531
1130047
2529491
1593847
4185851
5741051
10838651
10910891
56025847
149237051
737047
737287
737291
751447
1183687
1601287
2479691
4193051
6785287
22351691
93185051
138977287
342017051
67711691
68575447
172255687
5588657287
4060255447
372642641051
391356895687
730447
730451
989647
1767011
1853647
2271011
6159247
10407011
24922451
65357647
536051
1169647
1601647
2479811
2912051
3761647
6785651
6800047
10255807
10256047
18017647
18017651
22352051
3359105411
41777651
68576047
68576051
146335807
3412241647
5588657407
6522656047
6522656051
8388032047
38869951807
38869951811
1779296047
4112095807
989939
1144019
2543459
2372459
2386859
5756459
6174299
10854059
56041259
752459
752699
1184459
6800699
9392459
138992699
647888699
41792459
4112111099
745859
3078419
2927459
22367459
647903219
41792819
67713059
6522671459
1779311459
33608207459
1026371
1180447
2579891
1041127
1645691
1905131
4237687
6210731
9421691
10962727
24973931
56077687
56077691
1221131
2531527
30165127
108803531
139029131
29732887
29747527
41828887
68627287
560229127
5588709131
4112147531
1890851
2322851
2409487
2423651
3114847
6211091
10977251
65322847
1653251
4245487
6837487
9429247
10293487
10307651
22403891
3359157247
41829247
41843887
41843891
8388083887
4112147647
2596739
6640499
4253099
10978139
10992539
1250939
1668539
15492299
22418939
139908539
367154939
172322939
5588724539
6210818699
4060322699
1906259
5808899
6226499
14016659
2979299
4260899
10323059
8388099299
38870019059
38870019299
2596883
5707279
6640639
1661243
1834039
1920679
1920683
2424439
6226279
10906043
10992679
56093243
149304439
392016679
1236439
1251083
1668679
1668683
9444439
15492439
22419079
30180679
56978839
139908679
342084439
367155079
29748443
67779083
68642843
5588724683
6522723079
22022882839
4060322839
4112163079
1834403
2338403
2425039
2425043
3130399
3130403
5808799
6226643
10474403
10992799
10992803
14016799
24989599
149391439
149391443
1237043
1668803
2547199
2547203
2979439
6853043
9444803
10309043
342084803
3359172799
41859199
41859443
146403203
1338723439
5588724803
8388099439
38870019203
6780439
6780443
11045843
11132479
392156483
3118883
4400483
57118643
103760483
108958879
139184483
140048479
648080479
648080483
29888239
68782639
68782643
172462879
560384483
6210958643
6522862883
22023022639
22023022643
4112302879
3270199
11132599
14156599
65564843
4400839
10448839
10448843
30320839
3359312603
146542999
404879239
1338863243
6522863239
8388239239
8388239243
38870159239
1779503239
6366223
9577187
11132623
25114787
149444387
392156623
3119023
4400387
4400623
30320627
103760623
139184623
342224387
648080623
648080627
29903023
68782783
68782787
6522863023
22023022787
33608399023
372642848387
391357103023
23481411503027
3270343
3270583
5948983
6366583
6366587
10614343
10614347
11132747
25129787
65564987
3119383
3119387
3968983
4400983
6992983
10448983
10448987
30320987
41984743
41999143
41999147
41999387
67904983
68783387
93839147
5588864747
38870159147
6158263
7091627
25425823
25440463
149755423
7303663
15943427
367606067
30199423
22023333823
33608710067
372643159423
23481411814067
6259783
6677623
14467787
10774427
30632023
648406183
3359623783
42296027
42310187
42310427
94150183
146854187
1339174423
6523174423
38870470183
4060774427
4112599783
11450363
11522603
56637563
149848759
22963399
109363399
139589003
367699403
30292763
42388763
68323399
69187159
172867399
172867403
560788999
560789003
5589269003
4060867159
4112707399
33608803399
23481411907399
11018719
11018723
14561119
25533919
65969363
149935763
9989123
10853363
30725363
93797359
42403519
68309359
69187763
146947519
38870563763
33608803759
33608803763
11239
11243
15559
25639
25643
50119
50123
172519
231559
231563
932839
1088387
70999
415187
2231027
3007183
5686999
9314363
10351183
13979983
64783183
6853423
17221427
652261427
411205427
6983
11279
25703
28559
37199
68899
68903
6531619
14928259
49459
49463
71039
156019
243839
287059
674419
675859
675863
1020023
1021463
2231059
3007219
3007223
64784639
4175063
6765623
6853463
133861459
558861599
406021463
411203999
411205439
13897223
34199779
9359783
40465223
250503623
561542159
50327943619
1987
4871
6311
7027
17107
30071
38707
38711
68947
102071
568627
114311
372067
2231107
5687107
5687111
13893667
40463107
158227
158231
34199831
56015831
558865267
558865271
233219462227
24672326227
2803
4943
4967
6379
7127
8539
8543
8563
11443
11447
28703
28723
30139
69019
155423
179899
179903
302299
611927
1390967
2488219
2488223
2488247
3412727
14919739
675979
10351339
10351343
24866539
34197763
2965603
4175203
4260167
838799207
250413767
2235855597763
159763
374299
503927
676727
3010967
13982327
149284727
4262303
9361367
14630299
61201363
61286299
61287739
250502303
6547
6551
8707
11587
17327
24547
24551
30307
37483
180071
233347
1080043
1087271
1814467
2488391
33590927
49727
49747
71327
676147
9314707
13980311
34197883
36704951
55970683
6767347
6767351
9359351
24909883
56013883
56013887
133861727
621071327
177837887
411205723
411205727
1033285751
72043
72047
158443
419087
1713671
1800047
5689483
13897487
65304067
83448047
895695883
6769487
9360067
22321487
22321511
56016043
61286471
250417507
250503887
2427783887
10675527887
24672326447
5179
6619
15959
17419
37579
50539
50543
223339
233419
233423
570379
1080143
71419
113159
244199
415559
674759
933979
1020379
1021799
6117983
65217023
24909979
2051853959
177925799
3011179
13982539
13982543
18129719
36707179
65304139
391377743
895695959
40465583
61201579
61287983
107857579
250503983
2427783983
8923
16103
16127
24763
24767
26183
50683
95327
173059
180287
223463
569083
570499
570527
612259
612263
1080259
1080263
1087459
1339463
1339487
71563
242923
242927
1021963
3007723
13894099
40463543
1033285963
201648901963
1713863
1800259
18131303
34201703
83448263
149286499
391377863
3887078687
250416263
50327944099
7559
8999
37799
302759
933479
1814759
70199
242999
1020599
6118199
10871639
14630039
158759
504359
1542599
149285159
6769799
405937799
16319
17783
39383
95539
181919
181943
233759
1037303
1391519
6532343
14928959
156719
243119
244583
287783
372719
934319
934343
1020743
1022179
1022183
6118339
55971119
2351447779
2351447783
4260719
411204719
160343
374903
10354103
13897943
149286719
895696339
4262899
133864343
16603
16607
26711
29587
103007
232607
2487671
14920603
33591667
1539403
1798631
3008207
5688043
6118631
13894631
149197003
2965003
4174631
6766607
838800047
250414603
504767
504787
677563
1714387
2234207
2234227
3011803
4135003
18130363
391378363
391898231
4263167
40552627
61287167
61288603
411208627
2427784607
233219464627
201648904603
18503
27143
51599
613199
613219
1340419
3414023
14921059
14921063
245279
245299
1022899
1539859
55971859
55971863
177926899
411206899
161039
247463
375623
10874639
10874659
895697059
2969059
2969063
9362659
9362663
14631619
14631623
40553039
27283
51767
70459
174143
182803
303767
571603
934487
1038143
1090003
72643
72647
157579
245419
935183
1023019
24868007
64786247
4176647
6855019
3360816647
39135687023
24361285603
24361285607
73363
247579
505339
1714939
1714963
13898779
13898783
4263739
40553203
26539
27983
32323
32327
40939
97103
97127
104323
104327
225287
570859
572303
1082083
1341259
1393123
14921923
115099
116539
1022303
13895899
24868703
92303903
558863927
132136646303
140888467527767
161923
248323
376463
421103
506083
678859
678883
1802083
4136303
2969927
107859527
133865899
250419523
250504483
20473203523
50327945923
28151
32443
175003
225427
225431
416947
1082231
116687
64787083
64787087
6855911
833617487
838801487
1026043
2235647
2235671
4136467
10355803
10787807
10875671
13379827
391899647
61203647
61203671
20154386207
250506043
877768603
41399
52919
417239
1393559
3009959
13896359
177928199
162359
3013559
34203959
175463
225859
572879
572903
1817063
3415463
5601383
39193699
73939
73943
678739
9317279
13896479
55973303
4177939
248879
506663
1026479
1716263
13900079
9364099
133866503
180436099
20473204099
40819
40823
42239
53783
176179
184823
235199
236659
615379
1040159
2490239
33594259
116423
2351450663
177841219
507359
680159
1027223
1804799
2236823
4137619
18132979
36710419
62196983
24916819
24672329783
98563
105767
176299
176303
176327
1092163
5602243
6535343
14923367
39194539
9318139
24870143
65220383
24672329203
75503
249763
680299
1804939
10876963
10876967
6772939
17227367
56019499
61204939
180436967
558868943
250420939
99719
186119
236519
237959
1543319
652266359
5694119
34206119
107862119
877771079
108791
186551
187963
229727
238363
239831
308923
308927
618547
1043351
1086523
1820947
33597407
33597427
119563
1026791
9321167
149290627
895180387
6772387
6772391
17228207
652268231
2051860367
3360821831
39135692227
510551
683351
1548763
1548787
1720123
1807987
4140767
36713563
62200123
62200147
83454523
149291347
17230387
250423963
577939
5607839
683783
685199
942979
942983
1029359
1030823
64792579
895182983
2973359
2973379
2974799
4184399
4269379
4269383
180440419
341229359
1551383
10794739
18138739
6778579
180442579
558874579
189859
191299
578659
1046659
1097039
1824239
5608579
425279
3017303
6127703
9324503
13903699
36714719
2974079
2975543
4185143
133871539
621081119
428899
513839
1033679
1809859
34209839
149294659
9371303
40561699
411217699
429887
627163
2502047
2503507
2503511
171427
387403
689803
689807
691267
1553803
1553807
1813003
6133003
10366627
149211407
335921827
2351462467
2351462471
4189027
6782443
92317003
558877031
621086447
833630471
33531710467
24672340843
201648916871
389563
389567
691991
65319187
40480631
107872603
107872607
107872627
107872631
250431187
8031703027
260999
1038599
6784199
411221159
3360832199
2248919
2250359
2504519
652279319
3887008919
4151879
10891079
61305479
251059
251063
1832179
1832183
14946259
260399
260419
692399
5705039
10889059
24884399
64801223
2981999
621089039
24361301999
140888467543459
140888467543463
3028799
62211379
65321779
561560179
33531713783
39135705599
50327961599
233219481619
1109159
65238839
4197239
24933239
24361306199
268199
1045799
2255399
17245799
254659
254663
437539
437543
955919
1059599
2509679
266899
395039
438259
698899
698903
1044479
64807679
895196663
4196659
6876503
177860659
177860663
406044503
33531718079
39135708499
269039
269063
1822823
2254799
3033859
10808423
13920239
149307623
2990639
40574663
877789219
877789223
2427806663
8031710663
256219
593207
956083
1102939
1110167
2509823
265579
265607
1561579
1820783
2254223
2254243
2254247
3030407
6140803
6140807
14003203
895196807
2987207
2988619
4196779
4283183
9382223
14652643
14652647
133884643
180454247
341243207
177860779
1046807
1565183
1822963
1822967
1824379
2256379
3033983
391920379
391920407
4285339
4285367
6792403
6792407
9384383
22344407
24936383
40574803
61309363
558888383
250440403
1118519
5628599
963719
9344519
652291559
250443719
706679
1829879
2263319
13407479
36736919
1077911
1129747
1380283
1432147
5639831
6564287
6572927
6572947
33631991
1061323
1579723
1579727
3048523
5728363
10912367
36745991
65344387
335947747
335947751
3006791
6806923
6894791
9400387
40504363
177966791
132136685327
24672366787
545087
1064927
1841087
1842551
2274523
62234687
83489111
149325887
149325907
6810527
9401083
9402527
22362547
22362551
2051897083
2427824951
20473242527
24672281087
1447559
14984999
990359
17278199
24967799
34257959
22377959
56072519
989783
1395859
731299
990503
1076879
1076903
10927919
13950499
335963279
895230499
180487919
833671919
3887047939
177982319
411262339
1770239
4190903
10930079
18186263
14687059
14687063
40608479
61344499
20154440639
411264499
24672296659
1148039
14989319
735479
1081079
13954679
4234679
2051914679
1862279
65364839
14691239
558926279
201648964679
1181563
2579827
6616151
1113187
3100367
5780207
10444391
10964203
65396207
3058603
3058607
14722627
25004207
40556227
40556231
180524203
2202370607
2235855690791
2326367
5782391
10966391
36799991
3060763
4355347
14723323
14723327
22414387
22414391
25006391
877859327
1494359
15023159
36808199
9462599
24672428999
1645559
558968759
14001479
1909079
1196999
149304599
558970199
652370039
1909799
2596799
39299539
10979779
10979783
14002319
6874339
6962159
6962183
14738159
341328739
2348141234183
2341939
2341943
5797919
5797943
83556503
9469939
17332339
22429943
40573919
61309943
20473309919
2620439
15053399
11004839
4393799
621204839
3144599
107990999
250550999
33729599
5825999
10490159
11010019
11010023
336045379
4312559
4313999
9498023
25048559
180570023
37264398979
132136782979
1938743
10492343
391516343
6908183
9500159
14769119
40690583
250554719
411346583
561681143
201649042583
5779799
2202458759
10966679
6950519
134044919
2052037079
3661123
5847043
5847047
6780143
15176779
15176783
33839203
33839207
39439343
10599767
65031763
149444567
3213979
4423579
4423583
9607607
14877983
17469979
17469983
25159579
25159583
56262139
92550167
559110143
3361063579
39135933983
2235855846167
5937739
11033899
11033903
11121763
11121767
34448327
3216139
7017763
7017767
14878727
33531944323
24361536167
201649152163
5847187
25115107
4422287
4508687
7102127
9607727
14878147
559110311
2052102307
33531943727
11121883
13626071
36955487
149534711
7017887
14878867
17472307
40800283
61536287
250665911
233219710847
34538759
336247559
4514759
3887332199
250754759
18470519
6158231
9874147
65776367
149843587
149843591
336466127
180990763
180990767
652821187
3361374763
33532254787
24672885187
391937083
391937087
25472927
41024923
251063347
50328503327
7505639
17875799
15581303
11524099
14546639
336559459
7418639
24672978479
11006419
11006423
14550259
18782419
34852799
62846423
65956819
7422263
41118263
61854259
61854263
2052508819
251156663
8032340639
33532348823
2352938899
26402899
835106903
3888482903
412695863
393389063
2429275439
8033179463
50329435439
233220955439
38197343
150688723
896666327
2352939739
18714139
26403743
835107739
2053346327
3888483743
412696727
132138136727
201650394139
2235857090323
66796487
150778723
18716323
23813899
26405903
41957899
62693899
251994887
251996323
407429899
563034887
33533188487
36949579
898532539
43821979
95660567
2205636403
2235858956543
37558699
64646567
3890437099
253861123
881125127
8035046543
233222821103
24364646563
181756583
254332583
59934739
184352183
254421119
201652822559
300719
300739
300743
1389383
6530323
2491123
13386167
18043099
3913568563
41903
67679
39189719
936119
1722359
4055159
4055179
6128779
6128783
25050383
40593743
2467223999
1503021739
3369252959
29231
37871
102643
102647
413683
34122643
34122667
949387
949391
336094987
336094991
3353191603
148033957363
16823
29663
29803
42767
51239
51263
51383
68659
68683
68687
172219
172223
172343
1079399
3671567
14929319
14929487
20476367
89518439
25051219
25561007
2245799
3023563
895708367
25573819
367717799
103963
103967
147283
147311
6480259
6480263
10886807
298483
427967
4056883
55888243
83881867
220229707
40604111
336083299
336083303
803170367
2467234339
432287
2514527
56160407
133928923
336096259
367718831
1503023323
64053167323
31079
39719
225479
1340039
1400543
678959
36707899
391302139
391302143
83895263
367727903
1503023903
96763
148579
157103
304099
1081723
6481583
18046339
83364599
242781263
10283179
10283183
500689583
2348267183
226799
1816559
1457999
36709199
952559
3026159
97919
106699
106703
1091659
1091663
8349119
940319
335826719
14108686679
962063
2249419
83387659
83387663
99623
99643
1395643
89523619
18049247
36711791
895182019
25047787
5032800287
3028603
4065379
13405243
13405363
25579003
367723003
2467251767
162859
309599
20484143
89526379
89526383
335831179
2253739
17814383
87789743
422759
1044859
3429619
5606927
435859
945479
149208043
149208047
234814122143
440179
440183
1485479
10289639
83392679
25582439
167899
193939
193943
245639
582623
582763
582767
625939
625943
3433819
3433823
6492503
8358739
149212223
553823423
3353183563
2258779
2258783
3036499
4073159
10812499
17819563
17819567
122839221143
194659
700127
41135467
5032808923
6156263
13414031
62134823
64726843
367222027
5266611619
2503439
8361359
18059759
83378159
974159
18081359
10902379
33608299
235162199
443659
83378879
1493279
244939
244943
253439
1411199
14941439
698539
698543
14108703979
13420943
373181899
148033978699
634603
1057963
6552979
39212059
453023
1498583
4081799
65261783
103364203
336116999
1082621803
3913598159
34164719
652747
1430179
1430183
1438991
1853563
10925687
201584567
6160747
40634323
12311162203
220281379
373200743
895748083
103382327
4102699
4111199
6184939
5371097903
17848799
64768439
108832439
3471959
6582239
10945439
33651479
18103819
18103823
17853263
25110859
803229239
3083039
205259039
2579323
15012287
2324419
4138819
4138843
4138847
9322823
10878019
36798019
895268443
895268447
25134167
40694663
201190262807
148034045059
391915123
647235619
647235767
1502587123
24911279
1506359
388807339
301967769599
146167837199
1609199
6274799
1527979
1527983
2625263
5735519
1601399
2370239
388846079
1067163983
1614383
14566839979
48190263983
3559247
5736503
1593643
10924703
13525487
18182447
25180679
803307863
6280843
9391103
10937803
10937807
2351522279
40754419
56306303
3353330303
1502642419
6711119
5782319
4240079
220421519
6467471
6778483
65474203
65474207
220475947
2015686511
18040751
41368751
56402323
243026183
1067800751
3270523
11055311
13647143
895955443
56406499
56415167
134175287
134175311
14566949707
14566949711
148033686527
5942159
103669199
149806799
134267759
5943023
5002031519
10621439
88122383
243650879
120926643839
6486479
25408079
88147439
15478963
34681243
18351623
18351643
88335763
1083145223
13214223643
34694347
65798351
220799947
88339943
150038351
90138959
220849199
3353812559
11454479
88428959
14088847405103
103994039
367859663
26362799
18867599
66060119
25883999
1083420139
11632459
11632463
57000959
244143499
2468079503
34678799
12312222479
21966739
35082263
40680863
91060699
203035219
203035247
236636063
896667407
26541503
104819879
20166381479
66203399
66730579
66730583
66730607
89272367
146169217003
35083123
57646367
12312613843
12312613847
81756427
897208271
244801703
369217727
2017485359
36949387
36949391
1085944579
1085944603
3916927123
3916927127
148037311127
152837563
152837567
246149539
69144599
87279839
66038519
209116799
377078543
48194043839
5010641423
2476175183
1399325732639
112297943
142883399
158435423
1511977939
2444579399
201199130927
573963407
48210279263
1399336926623
1106113103
1804459
1804463
8336299
14946739
80317007
5616719
24330959
36772679
150302303
175391
227231
615883
615887
204735859
5696347
5696351
2016569927
20119149623
100943
177979
178819
256603
307583
308303
412099
412123
412127
1033339
1033343
22029407
122858207
623803
883699
883703
883871
335329459
503291207
2016499819
4819022203
14803406039
15087167
336962447
186479
8040239
8403259
220247399
9018143419
9018143423
38889503
500187599
14089603103
587519
640219
640223
6549979
500325979
500325983
597859
537141719
24392279
2206338023
1857599
2536559
33641567
5672879
2641099
500356079
1163663
3495743
3496579
3496607
38955019
3322940539
20119101383
80484191
372808939
2203332163
50168159
1410973199
2661959
1469659
1520639
89648639
4191259
80525659
2718139
2718143
24490799
204988319
8581099
8633951
65554127
1209507407
36964483
2239204459
620293967
24616199
39493439
201908879
107119583
4819375439
24832919
24833063
244167983
1207141576847
3883414607
2332844039
877007023199
37648799
9608399
21355483
34419019
34419023
9561863
81152927
65626819
244526519
25440479
1322529119
38804827
338491003
35652959
1461905279
92873779
110109859
110109863
530014579
6498871339
208166087
1325095199
84533084430623
69794759
546364199
535634207
1468810223
2215306367
221696323
6515667619
23501562743
917025379
8395954395839
857300399
9071867639
3443780447
89680439
901813823
3695303
34178083
1067879
1072919
1539619
1845499
6200059
6200063
737149243
5302223
3019747243
28914133219
90523003
48241439
54108860539
84537618619
3841339
39299879
6981983
20974463
19937643239
8817959
1229929919
51803707
221786899
642717499
28916252639
148998383
1465007899
23300487647
13997064239
57371179
57371183
7935174719
7950571199
8812861339
1330177939
39094005719
5143802399
54431205839
538082639
205068499
6407279
31813343
18118483463
543138023
125846779
125846783
173497515839
139802925887
47611048319
234564034319
1230410999
38443679
755080699
